%YAML 1.1
%TAG !u! tag:unity3d.com,2011:
--- !u!1 &2239435436644777638
GameObject:
  m_ObjectHideFlags: 0
  m_CorrespondingSourceObject: {fileID: 0}
  m_PrefabInstance: {fileID: 0}
  m_PrefabAsset: {fileID: 0}
  serializedVersion: 6
  m_Component:
  - component: {fileID: 4351456285278028729}
  - component: {fileID: 6078664368732826501}
  - component: {fileID: 8103417329799482803}
  m_Layer: 0
  m_Name: Potion Liquid
  m_TagString: Untagged
  m_Icon: {fileID: 0}
  m_NavMeshLayer: 0
  m_StaticEditorFlags: 0
  m_IsActive: 1
--- !u!4 &4351456285278028729
Transform:
  m_ObjectHideFlags: 0
  m_CorrespondingSourceObject: {fileID: 0}
  m_PrefabInstance: {fileID: 0}
  m_PrefabAsset: {fileID: 0}
  m_GameObject: {fileID: 2239435436644777638}
  m_LocalRotation: {x: -0.7071068, y: 0, z: -0, w: 0.7071067}
  m_LocalPosition: {x: 0.008474135, y: 0, z: -0.002574267}
  m_LocalScale: {x: 2.3114, y: 2.3114, z: 2.3114}
  m_Children: []
  m_Father: {fileID: 2168496916076067212}
  m_RootOrder: 2
  m_LocalEulerAnglesHint: {x: 0, y: 0, z: 0}
--- !u!33 &6078664368732826501
MeshFilter:
  m_ObjectHideFlags: 0
  m_CorrespondingSourceObject: {fileID: 0}
  m_PrefabInstance: {fileID: 0}
  m_PrefabAsset: {fileID: 0}
  m_GameObject: {fileID: 2239435436644777638}
  m_Mesh: {fileID: 4376173816424490508, guid: b45a579b1a68a1e4f9dce0e291ca4595, type: 3}
--- !u!23 &8103417329799482803
MeshRenderer:
  m_ObjectHideFlags: 0
  m_CorrespondingSourceObject: {fileID: 0}
  m_PrefabInstance: {fileID: 0}
  m_PrefabAsset: {fileID: 0}
  m_GameObject: {fileID: 2239435436644777638}
  m_Enabled: 1
  m_CastShadows: 1
  m_ReceiveShadows: 1
  m_DynamicOccludee: 1
  m_MotionVectors: 1
  m_LightProbeUsage: 1
  m_ReflectionProbeUsage: 1
  m_RayTracingMode: 2
  m_RayTraceProcedural: 0
  m_RenderingLayerMask: 1
  m_RendererPriority: 0
  m_Materials:
  - {fileID: 2100000, guid: a017d9cc79bfe5f42bc737e430fb8e44, type: 2}
  m_StaticBatchInfo:
    firstSubMesh: 0
    subMeshCount: 0
  m_StaticBatchRoot: {fileID: 0}
  m_ProbeAnchor: {fileID: 0}
  m_LightProbeVolumeOverride: {fileID: 0}
  m_ScaleInLightmap: 1
  m_ReceiveGI: 1
  m_PreserveUVs: 0
  m_IgnoreNormalsForChartDetection: 0
  m_ImportantGI: 0
  m_StitchLightmapSeams: 1
  m_SelectedEditorRenderState: 3
  m_MinimumChartSize: 4
  m_AutoUVMaxDistance: 0.5
  m_AutoUVMaxAngle: 89
  m_LightmapParameters: {fileID: 0}
  m_SortingLayerID: 0
  m_SortingLayer: 0
  m_SortingOrder: 0
  m_AdditionalVertexStreams: {fileID: 0}
--- !u!1 &6331170116197718245
GameObject:
  m_ObjectHideFlags: 0
  m_CorrespondingSourceObject: {fileID: 0}
  m_PrefabInstance: {fileID: 0}
  m_PrefabAsset: {fileID: 0}
  serializedVersion: 6
  m_Component:
  - component: {fileID: 6331170116197718267}
  - component: {fileID: 6331170116197718244}
  m_Layer: 0
  m_Name: ScorePotionTemplate
  m_TagString: Untagged
  m_Icon: {fileID: 0}
  m_NavMeshLayer: 0
  m_StaticEditorFlags: 0
  m_IsActive: 1
--- !u!4 &6331170116197718267
Transform:
  m_ObjectHideFlags: 0
  m_CorrespondingSourceObject: {fileID: 0}
  m_PrefabInstance: {fileID: 0}
  m_PrefabAsset: {fileID: 0}
  m_GameObject: {fileID: 6331170116197718245}
  m_LocalRotation: {x: 0, y: 0, z: 0, w: 1}
  m_LocalPosition: {x: 0, y: 0, z: 0}
  m_LocalScale: {x: 8, y: 8, z: 8}
  m_Children:
  - {fileID: 2168496916076067212}
  m_Father: {fileID: 0}
  m_RootOrder: 0
  m_LocalEulerAnglesHint: {x: 0, y: 0, z: 0}
--- !u!114 &6331170116197718244
MonoBehaviour:
  m_ObjectHideFlags: 0
  m_CorrespondingSourceObject: {fileID: 0}
  m_PrefabInstance: {fileID: 0}
  m_PrefabAsset: {fileID: 0}
  m_GameObject: {fileID: 6331170116197718245}
  m_Enabled: 1
  m_EditorHideFlags: 0
  m_Script: {fileID: 11500000, guid: e690300ff9dc478895c0010856d87d0a, type: 3}
  m_Name: 
  m_EditorClassIdentifier: 
  updateMode: 0
  Target: {fileID: 2168496916076067212}
  MaxWobble: 0.17
  WobbleSpeedMove: 0.89
  fillAmountMax: 4
  fillAmountMin: -4
  normalizedFillAmount: 0.5
  Recovery: 4
  Thickness: 0.16
  CompensateShapeAmount: 0
  mesh: {fileID: 4376173816424490508, guid: b45a579b1a68a1e4f9dce0e291ca4595, type: 3}
  rend: {fileID: 8103417329799482803}
--- !u!1001 &1842734251120991847
PrefabInstance:
  m_ObjectHideFlags: 0
  serializedVersion: 2
  m_Modification:
    m_TransformParent: {fileID: 6331170116197718267}
    m_Modifications:
    - target: {fileID: -8679921383154817045, guid: b45a579b1a68a1e4f9dce0e291ca4595, type: 3}
      propertyPath: m_RootOrder
      value: 0
      objectReference: {fileID: 0}
    - target: {fileID: -8679921383154817045, guid: b45a579b1a68a1e4f9dce0e291ca4595, type: 3}
      propertyPath: m_LocalScale.x
      value: 1.5
      objectReference: {fileID: 0}
    - target: {fileID: -8679921383154817045, guid: b45a579b1a68a1e4f9dce0e291ca4595, type: 3}
      propertyPath: m_LocalScale.y
      value: 1.5
      objectReference: {fileID: 0}
    - target: {fileID: -8679921383154817045, guid: b45a579b1a68a1e4f9dce0e291ca4595, type: 3}
      propertyPath: m_LocalScale.z
      value: 1.5
      objectReference: {fileID: 0}
    - target: {fileID: -8679921383154817045, guid: b45a579b1a68a1e4f9dce0e291ca4595, type: 3}
      propertyPath: m_LocalPosition.x
      value: 0
      objectReference: {fileID: 0}
    - target: {fileID: -8679921383154817045, guid: b45a579b1a68a1e4f9dce0e291ca4595, type: 3}
      propertyPath: m_LocalPosition.y
      value: -0.2
      objectReference: {fileID: 0}
    - target: {fileID: -8679921383154817045, guid: b45a579b1a68a1e4f9dce0e291ca4595, type: 3}
      propertyPath: m_LocalPosition.z
      value: 0
      objectReference: {fileID: 0}
    - target: {fileID: -8679921383154817045, guid: b45a579b1a68a1e4f9dce0e291ca4595, type: 3}
      propertyPath: m_LocalRotation.w
      value: 1
      objectReference: {fileID: 0}
    - target: {fileID: -8679921383154817045, guid: b45a579b1a68a1e4f9dce0e291ca4595, type: 3}
      propertyPath: m_LocalRotation.x
      value: 0
      objectReference: {fileID: 0}
    - target: {fileID: -8679921383154817045, guid: b45a579b1a68a1e4f9dce0e291ca4595, type: 3}
      propertyPath: m_LocalRotation.y
      value: 0
      objectReference: {fileID: 0}
    - target: {fileID: -8679921383154817045, guid: b45a579b1a68a1e4f9dce0e291ca4595, type: 3}
      propertyPath: m_LocalRotation.z
      value: 0
      objectReference: {fileID: 0}
    - target: {fileID: -8679921383154817045, guid: b45a579b1a68a1e4f9dce0e291ca4595, type: 3}
      propertyPath: m_LocalEulerAnglesHint.x
      value: 0
      objectReference: {fileID: 0}
    - target: {fileID: -8679921383154817045, guid: b45a579b1a68a1e4f9dce0e291ca4595, type: 3}
      propertyPath: m_LocalEulerAnglesHint.y
      value: 0
      objectReference: {fileID: 0}
    - target: {fileID: -8679921383154817045, guid: b45a579b1a68a1e4f9dce0e291ca4595, type: 3}
      propertyPath: m_LocalEulerAnglesHint.z
      value: 0
      objectReference: {fileID: 0}
    - target: {fileID: 919132149155446097, guid: b45a579b1a68a1e4f9dce0e291ca4595, type: 3}
      propertyPath: m_Name
      value: ScorePotionTemplate
      objectReference: {fileID: 0}
    - target: {fileID: 1443975987784926215, guid: b45a579b1a68a1e4f9dce0e291ca4595, type: 3}
      propertyPath: m_Materials.Array.data[0]
      value: 
      objectReference: {fileID: 2100000, guid: bc0906483023ad84b89aad0ba3b1798b, type: 2}
    - target: {fileID: 8044683615544721777, guid: b45a579b1a68a1e4f9dce0e291ca4595, type: 3}
      propertyPath: m_Materials.Array.data[0]
      value: 
      objectReference: {fileID: 2100000, guid: dcda3e3675db33549af7bf029f403b34, type: 2}
    m_RemovedComponents: []
  m_SourcePrefab: {fileID: 100100000, guid: b45a579b1a68a1e4f9dce0e291ca4595, type: 3}
--- !u!4 &2168496916076067212 stripped
Transform:
  m_CorrespondingSourceObject: {fileID: -8679921383154817045, guid: b45a579b1a68a1e4f9dce0e291ca4595, type: 3}
  m_PrefabInstance: {fileID: 1842734251120991847}
  m_PrefabAsset: {fileID: 0}
