{
    "name": "Dypsloom.PotionBlast",
    "rootNamespace": "",
    "references": [
        "GUID:1fe1728be813d6d4ea07f0f88dd755d3",
        "GUID:75469ad4d38634e559750d17036d5f7c",
        "GUID:4307f53044263cf4b835bd812fc161a4",
        "GUID:6055be8ebefd69e48b49212b09b47b2f",
        "GUID:eec0964c48f6f4e40bc3ec2257ccf8c5",
        "GUID:f06555f75b070af458a003d92f9efb00",
        "GUID:15fc0a57446b3144c949da3e2b9737a9",
        "GUID:df380645f10b7bc4b97d4f5eb6303d95",
        "GUID:728219d0e49961147a6e920dcd47e35a",
        "GUID:fb24642277b1db2449da7ac148ce939d",
        "GUID:f9bcd02b74645314885d892ffc52ac78",
        "GUID:2b3917e0db0c6b34f82d300c7b029b56",
        "GUID:84651a3751eca9349aac36a66bba901b",
        "GUID:8087d854c1f812e4b9a74437dfc524e0",
        "GUID:9e24947de15b9834991c9d8411ea37cf"
    ],
    "includePlatforms": [],
    "excludePlatforms": [],
    "allowUnsafeCode": false,
    "overrideReferences": false,
    "precompiledReferences": [],
    "autoReferenced": true,
    "defineConstraints": [],
    "versionDefines": [],
    "noEngineReferences": false
}